..\PSW.TXT,9AECB64F,1D179E0,9AEB7DB9,1D179E0,7BFAF38C,129
FAVICON.ICO,9B2A83A0,1D179E0,9B2923F3,1D179E0,416E3220,EBFC
images\40X40_C.PNG,9B0E96D0,1D179E0,9B0DFA8D,1D179E0,2B073E62,48F
images\40X40_S.PNG,A7B49930,1D179E0,A7B472C4,1D179E0,FA5F7D04,450
images\LEFT.PNG,9B377C0D,1D179E0,9B3706DC,1D179E0,959E69D,F7
images\TOP.PNG,9B397802,1D179E0,9B3929F6,1D179E0,147727A4,119
INDEX.XML,EF4D42D5,1D17F82,9B1E7417,1D179E0,37DA8A98,14F
LOGIN.XML,9B3B998A,1D179E0,9B3A8820,1D179E0,7676BB16,BC
LOGIN.XSL,9B43FF62,1D179E0,9B3C5E23,1D179E0,28886076,EE2
LOGOUT.XML,9B45AD1F,1D179E0,9B44E88B,1D179E0,F425AFC8,82
LOGOUT.XSL,9B497DBB,1D179E0,9B467074,1D179E0,D718F9EA,FE4
PAGE1.JS,441ECB47,1D17C6B,9B157488,1D179E0,9DD5D5A4,1B7A
PAGE1.XML,EF4DB829,1D17F82,9B20BF73,1D179E0,37DA8A98,14F
PAGE1.XSL,44235F39,1D17C6B,9B226BC1,1D179E0,2E4D325F,C30
PLCFORM.CSS,9B4BEEEB,1D179E0,9B4A66D6,1D179E0,1C9F394C,2F0
REFCLR.JS,9B2839A9,1D179E0,9B270131,1D179E0,D3A57060,121F
SHA1.JS,9B58993E,1D179E0,9B4D003E,1D179E0,4C3469C7,F9F
STYLE.CSS,9B346EDA,1D179E0,9B2B93B4,1D179E0,BF6234C7,9A5
